{"_id":{"$oid":"5cb8b4955498574ab0ede0c6"},"code":"AED","value":3.673181,"__v":0}
{"_id":{"$oid":"5cb8b4955498574ab0ede0c7"},"code":"AFN","value":75.7895,"__v":0}
{"_id":{"$oid":"5cb8b4955498574ab0ede0c8"},"code":"ALL","value":110.329093,"__v":0}
{"_id":{"$oid":"5cb8b4955498574ab0ede0c9"},"code":"AMD","value":486.912812,"__v":0}
{"_id":{"$oid":"5cb8b4955498574ab0ede0ca"},"code":"ANG","value":1.824694,"__v":0}
{"_id":{"$oid":"5cb8b4955498574ab0ede0cb"},"code":"AOA","value":315.606,"__v":0}
{"_id":{"$oid":"5cb8b4955498574ab0ede0cc"},"code":"ARS","value":39.9895,"__v":0}
{"_id":{"$oid":"5cb8b4955498574ab0ede0cd"},"code":"AUD","value":1.406999,"__v":0}
{"_id":{"$oid":"5cb8b4955498574ab0ede0ce"},"code":"AWG","value":1.8,"__v":0}
{"_id":{"$oid":"5cb8b4955498574ab0ede0cf"},"code":"AZN","value":1.7025,"__v":0}
{"_id":{"$oid":"5cb8b4955498574ab0ede0d0"},"code":"BAM","value":1.727644,"__v":0}
{"_id":{"$oid":"5cb8b4955498574ab0ede0d1"},"code":"BBD","value":2,"__v":0}
{"_id":{"$oid":"5cb8b4955498574ab0ede0d2"},"code":"BDT","value":83.934111,"__v":0}
{"_id":{"$oid":"5cb8b4955498574ab0ede0d3"},"code":"BGN","value":1.725595,"__v":0}
{"_id":{"$oid":"5cb8b4955498574ab0ede0d4"},"code":"BHD","value":0.377044,"__v":0}
{"_id":{"$oid":"5cb8b4955498574ab0ede0d5"},"code":"BIF","value":1804.83657,"__v":0}
{"_id":{"$oid":"5cb8b4955498574ab0ede0d6"},"code":"BMD","value":1,"__v":0}
{"_id":{"$oid":"5cb8b4955498574ab0ede0d7"},"code":"BND","value":1.353611,"__v":0}
{"_id":{"$oid":"5cb8b4955498574ab0ede0d8"},"code":"BOB","value":6.90884,"__v":0}
{"_id":{"$oid":"5cb8b4955498574ab0ede0d9"},"code":"BRL","value":3.817302,"__v":0}
{"_id":{"$oid":"5cb8b4955498574ab0ede0da"},"code":"BSD","value":1,"__v":0}
{"_id":{"$oid":"5cb8b4955498574ab0ede0db"},"code":"BTC","value":0.000251008559,"__v":0}
{"_id":{"$oid":"5cb8b4955498574ab0ede0dc"},"code":"BTN","value":69.041107,"__v":0}
{"_id":{"$oid":"5cb8b4955498574ab0ede0dd"},"code":"BWP","value":10.716516,"__v":0}
{"_id":{"$oid":"5cb8b4955498574ab0ede0de"},"code":"BYN","value":2.13175,"__v":0}
{"_id":{"$oid":"5cb8b4955498574ab0ede0df"},"code":"BZD","value":2.01533,"__v":0}
{"_id":{"$oid":"5cb8b4955498574ab0ede0e0"},"code":"CAD","value":1.332133,"__v":0}
{"_id":{"$oid":"5cb8b4955498574ab0ede0e1"},"code":"CDF","value":1647.226986,"__v":0}
{"_id":{"$oid":"5cb8b4955498574ab0ede0e2"},"code":"CHF","value":1.001116,"__v":0}
{"_id":{"$oid":"5cb8b4955498574ab0ede0e3"},"code":"CLF","value":0.024214,"__v":0}
{"_id":{"$oid":"5cb8b4955498574ab0ede0e4"},"code":"CLP","value":669.994306,"__v":0}
{"_id":{"$oid":"5cb8b4955498574ab0ede0e5"},"code":"CNH","value":6.716673,"__v":0}
{"_id":{"$oid":"5cb8b4955498574ab0ede0e6"},"code":"CNY","value":6.713156,"__v":0}
{"_id":{"$oid":"5cb8b4955498574ab0ede0e7"},"code":"COP","value":3134.973607,"__v":0}
{"_id":{"$oid":"5cb8b4955498574ab0ede0e8"},"code":"CRC","value":601.130429,"__v":0}
{"_id":{"$oid":"5cb8b4955498574ab0ede0e9"},"code":"CUC","value":1,"__v":0}
{"_id":{"$oid":"5cb8b4955498574ab0ede0ea"},"code":"CUP","value":25.75,"__v":0}
{"_id":{"$oid":"5cb8b4955498574ab0ede0eb"},"code":"CVE","value":97.69875,"__v":0}
{"_id":{"$oid":"5cb8b4955498574ab0ede0ec"},"code":"CZK","value":22.606986,"__v":0}
{"_id":{"$oid":"5cb8b4955498574ab0ede0ed"},"code":"DJF","value":178,"__v":0}
{"_id":{"$oid":"5cb8b4955498574ab0ede0ee"},"code":"DKK","value":6.578606,"__v":0}
{"_id":{"$oid":"5cb8b4955498574ab0ede0ef"},"code":"DOP","value":50.570167,"__v":0}
{"_id":{"$oid":"5cb8b4955498574ab0ede0f0"},"code":"DZD","value":118.66,"__v":0}
{"_id":{"$oid":"5cb8b4955498574ab0ede0f1"},"code":"EGP","value":17.3773,"__v":0}
{"_id":{"$oid":"5cb8b4955498574ab0ede0f2"},"code":"ERN","value":14.997308,"__v":0}
{"_id":{"$oid":"5cb8b4955498574ab0ede0f3"},"code":"ETB","value":28.354914,"__v":0}
{"_id":{"$oid":"5cb8b4955498574ab0ede0f4"},"code":"EUR","value":0.881483,"__v":0}
{"_id":{"$oid":"5cb8b4955498574ab0ede0f5"},"code":"FJD","value":2.133147,"__v":0}
{"_id":{"$oid":"5cb8b4955498574ab0ede0f6"},"code":"FKP","value":0.75403,"__v":0}
{"_id":{"$oid":"5cb8b4955498574ab0ede0f7"},"code":"GBP","value":0.75403,"__v":0}
{"_id":{"$oid":"5cb8b4955498574ab0ede0f8"},"code":"GEL","value":2.68,"__v":0}
{"_id":{"$oid":"5cb8b4955498574ab0ede0f9"},"code":"GGP","value":0.75403,"__v":0}
{"_id":{"$oid":"5cb8b4955498574ab0ede0fa"},"code":"GHS","value":5.566483,"__v":0}
{"_id":{"$oid":"5cb8b4955498574ab0ede0fb"},"code":"GIP","value":0.75403,"__v":0}
{"_id":{"$oid":"5cb8b4955498574ab0ede0fc"},"code":"GMD","value":49.59,"__v":0}
{"_id":{"$oid":"5cb8b4955498574ab0ede0fd"},"code":"GNF","value":9122.033472,"__v":0}
{"_id":{"$oid":"5cb8b4955498574ab0ede0fe"},"code":"GTQ","value":7.691595,"__v":0}
{"_id":{"$oid":"5cb8b4955498574ab0ede0ff"},"code":"GYD","value":208.529854,"__v":0}
{"_id":{"$oid":"5cb8b4955498574ab0ede100"},"code":"HKD","value":7.849897,"__v":0}
{"_id":{"$oid":"5cb8b4955498574ab0ede101"},"code":"HNL","value":24.429502,"__v":0}
{"_id":{"$oid":"5cb8b4955498574ab0ede102"},"code":"HRK","value":6.5369,"__v":0}
{"_id":{"$oid":"5cb8b4955498574ab0ede103"},"code":"HTG","value":83.055795,"__v":0}
{"_id":{"$oid":"5cb8b4955498574ab0ede104"},"code":"HUF","value":277.062,"__v":0}
{"_id":{"$oid":"5cb8b4955498574ab0ede105"},"code":"IDR","value":14229.05,"__v":0}
{"_id":{"$oid":"5cb8b4955498574ab0ede106"},"code":"ILS","value":3.598351,"__v":0}
{"_id":{"$oid":"5cb8b4955498574ab0ede107"},"code":"IMP","value":0.75403,"__v":0}
{"_id":{"$oid":"5cb8b4955498574ab0ede108"},"code":"INR","value":68.5895,"__v":0}
{"_id":{"$oid":"5cb8b4955498574ab0ede109"},"code":"IQD","value":1193.01198,"__v":0}
{"_id":{"$oid":"5cb8b4955498574ab0ede10a"},"code":"IRR","value":42105,"__v":0}
{"_id":{"$oid":"5cb8b4955498574ab0ede10b"},"code":"ISK","value":115.230028,"__v":0}
{"_id":{"$oid":"5cb8b4955498574ab0ede10c"},"code":"JEP","value":0.75403,"__v":0}
{"_id":{"$oid":"5cb8b4955498574ab0ede10d"},"code":"JMD","value":124.657475,"__v":0}
{"_id":{"$oid":"5cb8b4955498574ab0ede10e"},"code":"JOD","value":0.7084,"__v":0}
{"_id":{"$oid":"5cb8b4955498574ab0ede10f"},"code":"JPY","value":111.525,"__v":0}
{"_id":{"$oid":"5cb8b4955498574ab0ede110"},"code":"KES","value":100.548039,"__v":0}
{"_id":{"$oid":"5cb8b4955498574ab0ede111"},"code":"KGS","value":68.697787,"__v":0}
{"_id":{"$oid":"5cb8b4955498574ab0ede112"},"code":"KHR","value":3993.252461,"__v":0}
{"_id":{"$oid":"5cb8b4955498574ab0ede113"},"code":"KMF","value":435.124235,"__v":0}
{"_id":{"$oid":"5cb8b4955498574ab0ede114"},"code":"KPW","value":900,"__v":0}
{"_id":{"$oid":"5cb8b4955498574ab0ede115"},"code":"KRW","value":1132.747455,"__v":0}
{"_id":{"$oid":"5cb8b4955498574ab0ede116"},"code":"KWD","value":0.303737,"__v":0}
{"_id":{"$oid":"5cb8b4955498574ab0ede117"},"code":"KYD","value":0.833251,"__v":0}
{"_id":{"$oid":"5cb8b4955498574ab0ede118"},"code":"KZT","value":379.259475,"__v":0}
{"_id":{"$oid":"5cb8b4955498574ab0ede119"},"code":"LAK","value":8587.436263,"__v":0}
{"_id":{"$oid":"5cb8b4955498574ab0ede11a"},"code":"LBP","value":1507.939936,"__v":0}
{"_id":{"$oid":"5cb8b4955498574ab0ede11b"},"code":"LKR","value":178.510923,"__v":0}
{"_id":{"$oid":"5cb8b4955498574ab0ede11c"},"code":"LRD","value":162.099955,"__v":0}
{"_id":{"$oid":"5cb8b4955498574ab0ede11d"},"code":"LSL","value":14.445061,"__v":0}
{"_id":{"$oid":"5cb8b4955498574ab0ede11e"},"code":"LYD","value":1.387425,"__v":0}
{"_id":{"$oid":"5cb8b4955498574ab0ede11f"},"code":"MAD","value":9.59114,"__v":0}
{"_id":{"$oid":"5cb8b4955498574ab0ede120"},"code":"MDL","value":17.225138,"__v":0}
{"_id":{"$oid":"5cb8b4955498574ab0ede121"},"code":"MGA","value":3527.87002,"__v":0}
{"_id":{"$oid":"5cb8b4955498574ab0ede122"},"code":"MKD","value":54.225,"__v":0}
{"_id":{"$oid":"5cb8b4955498574ab0ede123"},"code":"MMK","value":1532.655424,"__v":0}
{"_id":{"$oid":"5cb8b4955498574ab0ede124"},"code":"MNT","value":2512.48338,"__v":0}
{"_id":{"$oid":"5cb8b4955498574ab0ede125"},"code":"MOP","value":8.08357,"__v":0}
{"_id":{"$oid":"5cb8b4955498574ab0ede126"},"code":"MRO","value":357,"__v":0}
{"_id":{"$oid":"5cb8b4955498574ab0ede127"},"code":"MRU","value":36.63,"__v":0}
{"_id":{"$oid":"5cb8b4955498574ab0ede128"},"code":"MUR","value":34.6545,"__v":0}
{"_id":{"$oid":"5cb8b4955498574ab0ede129"},"code":"MVR","value":15.450033,"__v":0}
{"_id":{"$oid":"5cb8b4955498574ab0ede12a"},"code":"MWK","value":729.756381,"__v":0}
{"_id":{"$oid":"5cb8b4955498574ab0ede12b"},"code":"MXN","value":19.22335,"__v":0}
{"_id":{"$oid":"5cb8b4955498574ab0ede12c"},"code":"MYR","value":4.076476,"__v":0}
{"_id":{"$oid":"5cb8b4955498574ab0ede12d"},"code":"MZN","value":62.754284,"__v":0}
{"_id":{"$oid":"5cb8b4955498574ab0ede12e"},"code":"NAD","value":14.445061,"__v":0}
{"_id":{"$oid":"5cb8b4955498574ab0ede12f"},"code":"NGN","value":360.93,"__v":0}
{"_id":{"$oid":"5cb8b4955498574ab0ede130"},"code":"NIO","value":32.893571,"__v":0}
{"_id":{"$oid":"5cb8b4955498574ab0ede131"},"code":"NOK","value":8.535006,"__v":0}
{"_id":{"$oid":"5cb8b4955498574ab0ede132"},"code":"NPR","value":110.460149,"__v":0}
{"_id":{"$oid":"5cb8b4955498574ab0ede133"},"code":"NZD","value":1.456452,"__v":0}
{"_id":{"$oid":"5cb8b4955498574ab0ede134"},"code":"OMR","value":0.385086,"__v":0}
{"_id":{"$oid":"5cb8b4955498574ab0ede135"},"code":"PAB","value":1,"__v":0}
{"_id":{"$oid":"5cb8b4955498574ab0ede136"},"code":"PEN","value":3.294401,"__v":0}
{"_id":{"$oid":"5cb8b4955498574ab0ede137"},"code":"PGK","value":3.374847,"__v":0}
{"_id":{"$oid":"5cb8b4955498574ab0ede138"},"code":"PHP","value":52.710645,"__v":0}
{"_id":{"$oid":"5cb8b4955498574ab0ede139"},"code":"PKR","value":139.823316,"__v":0}
{"_id":{"$oid":"5cb8b4955498574ab0ede13a"},"code":"PLN","value":3.78805,"__v":0}
{"_id":{"$oid":"5cb8b4955498574ab0ede13b"},"code":"PYG","value":6112.364666,"__v":0}
{"_id":{"$oid":"5cb8b4955498574ab0ede13c"},"code":"QAR","value":3.6406,"__v":0}
{"_id":{"$oid":"5cb8b4955498574ab0ede13d"},"code":"RON","value":4.191312,"__v":0}
{"_id":{"$oid":"5cb8b4955498574ab0ede13e"},"code":"RSD","value":103.990378,"__v":0}
{"_id":{"$oid":"5cb8b4955498574ab0ede13f"},"code":"RUB","value":64.665,"__v":0}
{"_id":{"$oid":"5cb8b4955498574ab0ede140"},"code":"RWF","value":901.173218,"__v":0}
{"_id":{"$oid":"5cb8b4955498574ab0ede141"},"code":"SAR","value":3.75035,"__v":0}
{"_id":{"$oid":"5cb8b4955498574ab0ede142"},"code":"SBD","value":8.15425,"__v":0}
{"_id":{"$oid":"5cb8b4955498574ab0ede143"},"code":"SCR","value":13.663374,"__v":0}
{"_id":{"$oid":"5cb8b4955498574ab0ede144"},"code":"SDG","value":47.602294,"__v":0}
{"_id":{"$oid":"5cb8b4955498574ab0ede145"},"code":"SEK","value":9.23576,"__v":0}
{"_id":{"$oid":"5cb8b4955498574ab0ede146"},"code":"SGD","value":1.351503,"__v":0}
{"_id":{"$oid":"5cb8b4955498574ab0ede147"},"code":"SHP","value":0.75403,"__v":0}
{"_id":{"$oid":"5cb8b4955498574ab0ede148"},"code":"SLL","value":8390,"__v":0}
{"_id":{"$oid":"5cb8b4955498574ab0ede149"},"code":"SOS","value":578.397634,"__v":0}
{"_id":{"$oid":"5cb8b4955498574ab0ede14a"},"code":"SRD","value":7.458,"__v":0}
{"_id":{"$oid":"5cb8b4955498574ab0ede14b"},"code":"SSP","value":130.2634,"__v":0}
{"_id":{"$oid":"5cb8b4955498574ab0ede14c"},"code":"STD","value":21050.59961,"__v":0}
{"_id":{"$oid":"5cb8b4955498574ab0ede14d"},"code":"STN","value":21.675,"__v":0}
{"_id":{"$oid":"5cb8b4955498574ab0ede14e"},"code":"SVC","value":8.748592,"__v":0}
{"_id":{"$oid":"5cb8b4955498574ab0ede14f"},"code":"SYP","value":514.986726,"__v":0}
{"_id":{"$oid":"5cb8b4955498574ab0ede150"},"code":"SZL","value":14.445049,"__v":0}
{"_id":{"$oid":"5cb8b4955498574ab0ede151"},"code":"THB","value":31.680463,"__v":0}
{"_id":{"$oid":"5cb8b4955498574ab0ede152"},"code":"TJS","value":9.433069,"__v":0}
{"_id":{"$oid":"5cb8b4955498574ab0ede153"},"code":"TMT","value":3.50998,"__v":0}
{"_id":{"$oid":"5cb8b4955498574ab0ede154"},"code":"TND","value":3.005493,"__v":0}
{"_id":{"$oid":"5cb8b4955498574ab0ede155"},"code":"TOP","value":2.2612,"__v":0}
{"_id":{"$oid":"5cb8b4955498574ab0ede156"},"code":"TRY","value":5.466711,"__v":0}
{"_id":{"$oid":"5cb8b4955498574ab0ede157"},"code":"TTD","value":6.782653,"__v":0}
{"_id":{"$oid":"5cb8b4955498574ab0ede158"},"code":"TWD","value":30.819495,"__v":0}
{"_id":{"$oid":"5cb8b4955498574ab0ede159"},"code":"TZS","value":2345.4,"__v":0}
{"_id":{"$oid":"5cb8b4955498574ab0ede15a"},"code":"UAH","value":27.027218,"__v":0}
{"_id":{"$oid":"5cb8b4955498574ab0ede15b"},"code":"UGX","value":3699.308762,"__v":0}
{"_id":{"$oid":"5cb8b4955498574ab0ede15c"},"code":"USD","value":1,"__v":0}
{"_id":{"$oid":"5cb8b4955498574ab0ede15d"},"code":"UYU","value":33.536384,"__v":0}
{"_id":{"$oid":"5cb8b4955498574ab0ede15e"},"code":"UZS","value":8370.058995,"__v":0}
{"_id":{"$oid":"5cb8b4955498574ab0ede15f"},"code":"VEF","value":248487.642241,"__v":0}
{"_id":{"$oid":"5cb8b4955498574ab0ede160"},"code":"VES","value":3291.516389,"__v":0}
{"_id":{"$oid":"5cb8b4955498574ab0ede161"},"code":"VND","value":23147.36311,"__v":0}
{"_id":{"$oid":"5cb8b4955498574ab0ede162"},"code":"VUV","value":111.268062,"__v":0}
{"_id":{"$oid":"5cb8b4955498574ab0ede163"},"code":"WST","value":2.603881,"__v":0}
{"_id":{"$oid":"5cb8b4955498574ab0ede164"},"code":"XAF","value":578.21464,"__v":0}
{"_id":{"$oid":"5cb8b4955498574ab0ede165"},"code":"XAG","value":0.06524019,"__v":0}
{"_id":{"$oid":"5cb8b4955498574ab0ede166"},"code":"XAU","value":0.0007671,"__v":0}
{"_id":{"$oid":"5cb8b4955498574ab0ede167"},"code":"XCD","value":2.7026,"__v":0}
{"_id":{"$oid":"5cb8b4955498574ab0ede168"},"code":"XDR","value":0.716189,"__v":0}
{"_id":{"$oid":"5cb8b4955498574ab0ede169"},"code":"XOF","value":578.21464,"__v":0}
{"_id":{"$oid":"5cb8b4955498574ab0ede16a"},"code":"XPD","value":0.00063961,"__v":0}
{"_id":{"$oid":"5cb8b4955498574ab0ede16b"},"code":"XPF","value":105.188847,"__v":0}
{"_id":{"$oid":"5cb8b4955498574ab0ede16c"},"code":"XPT","value":0.00120413,"__v":0}
{"_id":{"$oid":"5cb8b4955498574ab0ede16d"},"code":"YER","value":250.300682,"__v":0}
{"_id":{"$oid":"5cb8b4955498574ab0ede16e"},"code":"ZAR","value":14.457125,"__v":0}
{"_id":{"$oid":"5cb8b4955498574ab0ede16f"},"code":"ZMW","value":11.993007,"__v":0}
{"_id":{"$oid":"5cb8b4955498574ab0ede170"},"code":"ZWL","value":322.355011,"__v":0}
